
The following files have been resolved:
   antlr:antlr:jar:2.7.7:compile
   aopalliance:aopalliance:jar:1.0:compile
   ch.qos.logback:logback-classic:jar:1.1.9:compile
   ch.qos.logback:logback-core:jar:1.1.9:compile
   com.esotericsoftware:kryo:jar:4.0.0:compile
   com.esotericsoftware:minlog:jar:1.3.0:compile
   com.esotericsoftware:reflectasm:jar:1.11.3:compile
   com.fasterxml.jackson.core:jackson-annotations:jar:2.8.0:compile
   com.fasterxml.jackson.core:jackson-core:jar:2.8.6:compile
   com.fasterxml.jackson.core:jackson-databind:jar:2.8.6:compile
   com.fasterxml.jackson.dataformat:jackson-dataformat-protobuf:jar:2.8.6:compile
   com.fasterxml.jackson.datatype:jackson-datatype-guava:jar:2.8.6:compile
   com.fasterxml.jackson.datatype:jackson-datatype-hibernate5:jar:2.8.6:compile
   com.fasterxml.jackson.datatype:jackson-datatype-jdk8:jar:2.8.6:compile
   com.fasterxml.jackson.datatype:jackson-datatype-joda:jar:2.8.6:compile
   com.fasterxml.jackson.datatype:jackson-datatype-jsr310:jar:2.8.6:compile
   com.fasterxml.jackson.jaxrs:jackson-jaxrs-base:jar:2.8.6:compile
   com.fasterxml.jackson.jaxrs:jackson-jaxrs-json-provider:jar:2.8.6:compile
   com.fasterxml.jackson.module:jackson-module-jaxb-annotations:jar:2.8.6:compile
   com.fasterxml.jackson.module:jackson-module-jsonSchema:jar:2.8.6:compile
   com.fasterxml:classmate:jar:1.3.3:compile
   com.github.bmoliveira:snake-yaml:jar:v1.18-android:test
   com.github.javafaker:javafaker:jar:0.11:test
   com.github.mifmif:generex:jar:1.0.1:test
   com.github.vincentrussell:json-data-generator:jar:1.2:provided
   com.google.code.findbugs:annotations:jar:2.0.1:compile
   com.google.code.findbugs:jsr305:jar:1.3.9:compile
   com.google.guava:guava:jar:18.0:compile
   com.google.protobuf:protobuf-java:jar:3.1.0:compile
   com.googlecode.jmapper-framework:jmapper-api:jar:1.2.1:compile
   com.googlecode.jmapper-framework:jmapper-core:jar:1.6.0.1:compile
   com.hazelcast:hazelcast-spring:jar:3.7.5:compile
   com.hazelcast:hazelcast:jar:3.7.5:compile
   com.infradna.tool:bridge-method-annotation:jar:1.13:compile
   com.jayway.jsonpath:json-path:jar:2.2.0:test
   com.mysema.codegen:codegen:jar:0.6.8:compile
   com.mysema.commons:mysema-commons-lang:jar:0.2.4:compile
   com.querydsl:querydsl-apt:jar:4.1.4:compile
   com.querydsl:querydsl-codegen:jar:4.1.4:compile
   com.querydsl:querydsl-core:jar:4.1.4:compile
   com.querydsl:querydsl-jpa:jar:4.1.4:compile
   com.squareup:protoparser:jar:4.0.0:compile
   com.thoughtworks.xstream:xstream:jar:1.4.9:compile
   com.vaadin.external.atmosphere:atmosphere-runtime:jar:2.2.9.vaadin2:compile
   com.vaadin.external.flute:flute:jar:1.3.0.gg2:compile
   com.vaadin.external.google:android-json:jar:0.0.20131108.vaadin1:test
   com.vaadin.external.slf4j:vaadin-slf4j-jdk14:jar:1.6.1:compile
   com.vaadin:vaadin-client-compiled:jar:7.7.6:compile
   com.vaadin:vaadin-push:jar:7.7.6:compile
   com.vaadin:vaadin-sass-compiler:jar:0.9.13:compile
   com.vaadin:vaadin-server:jar:7.7.6:compile
   com.vaadin:vaadin-shared:jar:7.7.6:compile
   com.vaadin:vaadin-spring-boot-starter:jar:1.1.1:compile
   com.vaadin:vaadin-spring-boot:jar:1.1.1:compile
   com.vaadin:vaadin-spring:jar:1.1.1:compile
   com.vaadin:vaadin-themes:jar:7.7.6:compile
   commons-beanutils:commons-beanutils:jar:1.9.3:compile
   commons-cli:commons-cli:jar:1.3.1:provided
   commons-codec:commons-codec:jar:1.10:compile
   commons-collections:commons-collections:jar:3.2.2:compile
   commons-io:commons-io:jar:1.3.2:provided
   commons-lang:commons-lang:jar:2.6:provided
   dk.brics.automaton:automaton:jar:1.11-8:test
   dom4j:dom4j:jar:1.6.1:compile
   io.netty:netty-buffer:jar:4.1.5.Final:compile
   io.netty:netty-codec-dns:jar:4.1.5.Final:compile
   io.netty:netty-codec-http2:jar:4.1.5.Final:compile
   io.netty:netty-codec-http:jar:4.1.5.Final:compile
   io.netty:netty-codec-socks:jar:4.1.5.Final:compile
   io.netty:netty-codec:jar:4.1.5.Final:compile
   io.netty:netty-common:jar:4.1.5.Final:compile
   io.netty:netty-handler-proxy:jar:4.1.5.Final:compile
   io.netty:netty-handler:jar:4.1.5.Final:compile
   io.netty:netty-resolver-dns:jar:4.1.5.Final:compile
   io.netty:netty-resolver:jar:4.1.5.Final:compile
   io.netty:netty-transport:jar:4.1.5.Final:compile
   io.reactivex.rxjava2:rxjava:jar:2.0.6:compile
   io.reactivex:rxgroovy:jar:1.0.3:compile
   io.reactivex:rxjava:jar:1.1.9:compile
   io.vertx:vertx-auth-common:jar:3.3.3:compile
   io.vertx:vertx-core:jar:3.3.3:compile
   io.vertx:vertx-lang-groovy:jar:3.3.3:compile
   io.vertx:vertx-rx-groovy:jar:3.3.3:compile
   io.vertx:vertx-rx-java:jar:3.3.3:compile
   io.vertx:vertx-web:jar:3.3.3:compile
   javax.annotation:javax.annotation-api:jar:1.2:compile
   javax.inject:javax.inject:jar:1:compile
   javax.jdo:jdo-api:jar:3.0.1:compile
   javax.servlet:javax.servlet-api:jar:3.1.0:provided
   javax.transaction:javax.transaction-api:jar:1.2:compile
   javax.transaction:jta:jar:1.1:compile
   javax.validation:validation-api:jar:1.1.0.Final:compile
   javax.websocket:javax.websocket-api:jar:1.0:provided
   javax.ws.rs:javax.ws.rs-api:jar:2.0.1:compile
   joda-time:joda-time:jar:2.9.7:compile
   junit:junit:jar:4.12:test
   mysql:mysql-connector-java:jar:5.1.40:compile
   net.minidev:accessors-smart:jar:1.1:test
   net.minidev:json-smart:jar:2.2.1:test
   net.sf.dozer:dozer:jar:5.5.1:compile
   net.sf.ehcache:ehcache-core:jar:2.6.10:compile
   net.sf.kxml:kxml2:jar:2.3.0:compile
   net.ttddyy:datasource-proxy:jar:1.3.3:compile
   nz.net.ultraq.thymeleaf:thymeleaf-layout-dialect:jar:1.4.0:compile
   ognl:ognl:jar:3.0.8:compile
   org.apache.commons:commons-collections4:jar:4.1:provided
   org.apache.commons:commons-lang3:jar:3.4:compile
   org.apache.commons:commons-math3:jar:3.5:provided
   org.apache.tomcat.embed:tomcat-embed-el:jar:8.5.11:compile
   org.apache.tomcat:tomcat-jdbc:jar:8.5.11:compile
   org.apache.tomcat:tomcat-juli:jar:8.5.11:compile
   org.aspectj:aspectjweaver:jar:1.8.9:compile
   org.assertj:assertj-core:jar:2.6.0:test
   org.bouncycastle:bcpkix-jdk15on:jar:1.55:compile
   org.bouncycastle:bcprov-jdk15on:jar:1.55:compile
   org.codehaus.groovy:groovy-all:jar:2.4.7:compile
   org.codehaus.groovy:groovy-json:jar:2.4.7:compile
   org.codehaus.groovy:groovy:jar:2.4.7:compile
   org.codehaus.jackson:jackson-core-asl:jar:1.9.13:compile
   org.codehaus.jackson:jackson-mapper-asl:jar:1.9.13:compile
   org.eclipse.jdt.core.compiler:ecj:jar:4.3.1:compile
   org.eclipse.jetty.websocket:javax-websocket-client-impl:jar:9.4.1.v20170120:provided
   org.eclipse.jetty.websocket:javax-websocket-server-impl:jar:9.4.1.v20170120:provided
   org.eclipse.jetty.websocket:websocket-api:jar:9.4.1.v20170120:provided
   org.eclipse.jetty.websocket:websocket-client:jar:9.4.1.v20170120:provided
   org.eclipse.jetty.websocket:websocket-common:jar:9.4.1.v20170120:provided
   org.eclipse.jetty.websocket:websocket-server:jar:9.4.1.v20170120:provided
   org.eclipse.jetty.websocket:websocket-servlet:jar:9.4.1.v20170120:provided
   org.eclipse.jetty:jetty-annotations:jar:9.4.1.v20170120:provided
   org.eclipse.jetty:jetty-client:jar:9.4.1.v20170120:provided
   org.eclipse.jetty:jetty-continuation:jar:9.4.1.v20170120:provided
   org.eclipse.jetty:jetty-http:jar:9.4.1.v20170120:provided
   org.eclipse.jetty:jetty-io:jar:9.4.1.v20170120:provided
   org.eclipse.jetty:jetty-plus:jar:9.4.1.v20170120:provided
   org.eclipse.jetty:jetty-security:jar:9.4.1.v20170120:provided
   org.eclipse.jetty:jetty-server:jar:9.4.1.v20170120:provided
   org.eclipse.jetty:jetty-servlet:jar:9.4.1.v20170120:provided
   org.eclipse.jetty:jetty-servlets:jar:9.4.1.v20170120:provided
   org.eclipse.jetty:jetty-util:jar:9.4.1.v20170120:provided
   org.eclipse.jetty:jetty-webapp:jar:9.4.1.v20170120:provided
   org.eclipse.jetty:jetty-xml:jar:9.4.1.v20170120:provided
   org.glassfish.hk2.external:aopalliance-repackaged:jar:2.5.0-b32:compile
   org.glassfish.hk2.external:asm-all-repackaged:jar:2.5.0-b32:compile
   org.glassfish.hk2.external:javax.inject:jar:2.5.0-b32:compile
   org.glassfish.hk2:class-model:jar:2.5.0-b32:compile
   org.glassfish.hk2:config-types:jar:2.5.0-b32:compile
   org.glassfish.hk2:hk2-api:jar:2.5.0-b32:compile
   org.glassfish.hk2:hk2-config:jar:2.5.0-b32:compile
   org.glassfish.hk2:hk2-core:jar:2.5.0-b32:compile
   org.glassfish.hk2:hk2-locator:jar:2.5.0-b32:compile
   org.glassfish.hk2:hk2-runlevel:jar:2.5.0-b32:compile
   org.glassfish.hk2:hk2-utils:jar:2.5.0-b32:compile
   org.glassfish.hk2:hk2:jar:2.5.0-b32:compile
   org.glassfish.hk2:osgi-resource-locator:jar:1.0.1:compile
   org.glassfish.hk2:spring-bridge:jar:2.5.0-b32:compile
   org.glassfish.jersey.bundles.repackaged:jersey-guava:jar:2.25.1:compile
   org.glassfish.jersey.containers:jersey-container-servlet-core:jar:2.25.1:compile
   org.glassfish.jersey.containers:jersey-container-servlet:jar:2.25.1:compile
   org.glassfish.jersey.core:jersey-client:jar:2.25.1:compile
   org.glassfish.jersey.core:jersey-common:jar:2.25.1:compile
   org.glassfish.jersey.core:jersey-server:jar:2.25.1:compile
   org.glassfish.jersey.ext:jersey-bean-validation:jar:2.25.1:compile
   org.glassfish.jersey.ext:jersey-entity-filtering:jar:2.25.1:compile
   org.glassfish.jersey.ext:jersey-spring3:jar:2.25.1:compile
   org.glassfish.jersey.media:jersey-media-jaxb:jar:2.25.1:compile
   org.glassfish.jersey.media:jersey-media-json-jackson:jar:2.25.1:compile
   org.hamcrest:hamcrest-core:jar:1.3:compile
   org.hamcrest:hamcrest-library:jar:1.3:test
   org.hibernate.common:hibernate-commons-annotations:jar:5.0.1.Final:compile
   org.hibernate.javax.persistence:hibernate-jpa-2.1-api:jar:1.0.0.Final:compile
   org.hibernate:hibernate-core:jar:5.0.11.Final:compile
   org.hibernate:hibernate-entitymanager:jar:5.0.11.Final:compile
   org.hibernate:hibernate-java8:jar:5.0.11.Final:compile
   org.hibernate:hibernate-validator:jar:5.3.4.Final:compile
   org.hsqldb:hsqldb:jar:2.3.4:compile
   org.immutables:builder:jar:2.4.3:provided
   org.immutables:serial:jar:2.4.3:compile
   org.immutables:value:jar:2.4.3:provided
   org.javassist:javassist:jar:3.21.0-GA:compile
   org.jboss.logging:jboss-logging:jar:3.3.0.Final:compile
   org.jboss:jandex:jar:2.0.0.Final:compile
   org.jmockit:jmockit:jar:1.30:test
   org.jsoup:jsoup:jar:1.8.3:compile
   org.liquibase:liquibase-core:jar:3.5.3:compile
   org.mapstruct:mapstruct-jdk8:jar:1.1.0.Beta1:compile
   org.mapstruct:mapstruct-processor:jar:1.1.0.Beta1:provided
   org.mockito:mockito-core:jar:1.10.19:test
   org.mortbay.jasper:apache-el:jar:8.0.33:provided
   org.objenesis:objenesis:jar:2.2:compile
   org.ow2.asm:asm-commons:jar:5.1:provided
   org.ow2.asm:asm-tree:jar:5.1:provided
   org.ow2.asm:asm:jar:5.0.4:compile
   org.projectlombok:lombok:jar:1.16.12:compile
   org.reactivestreams:reactive-streams:jar:1.0.0:compile
   org.reflections:reflections:jar:0.9.10:compile
   org.skyscreamer:jsonassert:jar:1.4.0:test
   org.slf4j:jcl-over-slf4j:jar:1.7.22:compile
   org.slf4j:jul-to-slf4j:jar:1.7.22:compile
   org.slf4j:log4j-over-slf4j:jar:1.7.22:compile
   org.slf4j:slf4j-api:jar:1.7.22:compile
   org.springframework.boot:spring-boot-autoconfigure:jar:1.5.1.RELEASE:compile
   org.springframework.boot:spring-boot-devtools:jar:1.5.1.RELEASE:compile
   org.springframework.boot:spring-boot-starter-aop:jar:1.5.1.RELEASE:compile
   org.springframework.boot:spring-boot-starter-data-jpa:jar:1.5.1.RELEASE:compile
   org.springframework.boot:spring-boot-starter-hateoas:jar:1.5.1.RELEASE:compile
   org.springframework.boot:spring-boot-starter-jdbc:jar:1.5.1.RELEASE:compile
   org.springframework.boot:spring-boot-starter-jersey:jar:1.5.1.RELEASE:compile
   org.springframework.boot:spring-boot-starter-jetty:jar:1.5.1.RELEASE:provided
   org.springframework.boot:spring-boot-starter-logging:jar:1.5.1.RELEASE:compile
   org.springframework.boot:spring-boot-starter-mobile:jar:1.5.1.RELEASE:compile
   org.springframework.boot:spring-boot-starter-security:jar:1.5.1.RELEASE:compile
   org.springframework.boot:spring-boot-starter-test:jar:1.5.1.RELEASE:test
   org.springframework.boot:spring-boot-starter-thymeleaf:jar:1.5.1.RELEASE:compile
   org.springframework.boot:spring-boot-starter-validation:jar:1.5.1.RELEASE:compile
   org.springframework.boot:spring-boot-starter-web:jar:1.5.1.RELEASE:compile
   org.springframework.boot:spring-boot-starter:jar:1.5.1.RELEASE:compile
   org.springframework.boot:spring-boot-test-autoconfigure:jar:1.5.1.RELEASE:test
   org.springframework.boot:spring-boot-test:jar:1.5.1.RELEASE:test
   org.springframework.boot:spring-boot:jar:1.5.1.RELEASE:compile
   org.springframework.data:spring-data-commons:jar:1.13.0.RELEASE:compile
   org.springframework.data:spring-data-jpa:jar:1.11.0.RELEASE:compile
   org.springframework.hateoas:spring-hateoas:jar:0.23.0.RELEASE:compile
   org.springframework.mobile:spring-mobile-device:jar:1.1.5.RELEASE:compile
   org.springframework.plugin:spring-plugin-core:jar:1.2.0.RELEASE:compile
   org.springframework.retry:spring-retry:jar:1.2.0.RELEASE:compile
   org.springframework.security.oauth:spring-security-oauth2:jar:2.0.12.RELEASE:compile
   org.springframework.security:spring-security-config:jar:4.2.1.RELEASE:compile
   org.springframework.security:spring-security-core:jar:4.2.1.RELEASE:compile
   org.springframework.security:spring-security-jwt:jar:1.0.7.RELEASE:compile
   org.springframework.security:spring-security-web:jar:4.2.1.RELEASE:compile
   org.springframework.session:spring-session:jar:1.3.0.RELEASE:compile
   org.springframework:spring-aop:jar:4.3.6.RELEASE:compile
   org.springframework:spring-aspects:jar:4.3.6.RELEASE:compile
   org.springframework:spring-beans:jar:4.3.6.RELEASE:compile
   org.springframework:spring-context:jar:4.3.6.RELEASE:compile
   org.springframework:spring-core:jar:4.3.6.RELEASE:compile
   org.springframework:spring-expression:jar:4.3.6.RELEASE:compile
   org.springframework:spring-jdbc:jar:4.3.6.RELEASE:compile
   org.springframework:spring-orm:jar:4.3.6.RELEASE:compile
   org.springframework:spring-test:jar:4.3.6.RELEASE:test
   org.springframework:spring-tx:jar:4.3.6.RELEASE:compile
   org.springframework:spring-web:jar:4.3.6.RELEASE:compile
   org.springframework:spring-webmvc:jar:4.3.6.RELEASE:compile
   org.thymeleaf:thymeleaf-spring4:jar:2.1.5.RELEASE:compile
   org.thymeleaf:thymeleaf:jar:2.1.5.RELEASE:compile
   org.unbescape:unbescape:jar:1.1.0.RELEASE:compile
   org.w3c.css:sac:jar:1.3:compile
   org.yaml:snakeyaml:jar:1.17:compile
   xmlpull:xmlpull:jar:1.1.3.1:compile
   xpp3:xpp3_min:jar:1.1.4c:compile

