
The following files have been resolved:
   antlr:antlr:jar:2.7.7:compile
   ch.qos.logback:logback-classic:jar:1.2.3:compile
   ch.qos.logback:logback-core:jar:1.2.3:compile
   com.esotericsoftware:reflectasm:jar:1.11.3:compile
   com.fasterxml.jackson.core:jackson-annotations:jar:2.9.0:compile
   com.fasterxml.jackson.core:jackson-core:jar:2.9.7:compile
   com.fasterxml.jackson.core:jackson-databind:jar:2.9.7:compile
   com.fasterxml.jackson.datatype:jackson-datatype-jdk8:jar:2.9.7:compile
   com.fasterxml.jackson.datatype:jackson-datatype-joda:jar:2.9.7:compile
   com.fasterxml.jackson.datatype:jackson-datatype-jsr310:jar:2.9.7:compile
   com.fasterxml.jackson.module:jackson-module-jaxb-annotations:jar:2.9.7:compile
   com.fasterxml.jackson.module:jackson-module-parameter-names:jar:2.9.7:compile
   com.fasterxml:classmate:jar:1.4.0:compile
   com.flipkart.zjsonpatch:zjsonpatch:jar:0.3.5:compile
   com.github.javafaker:javafaker:jar:0.13:test
   com.github.mifmif:generex:jar:1.0.2:test
   com.github.vincentrussell:json-data-generator:jar:1.3:provided
   com.google.code.findbugs:jsr305:jar:1.3.9:compile
   com.google.code.gson:gson:jar:2.8.5:compile
   com.google.guava:guava:jar:18.0:compile
   com.google.protobuf:protobuf-java:jar:3.3.1:compile
   com.hazelcast:hazelcast:jar:3.11:compile
   com.infradna.tool:bridge-method-annotation:jar:1.13:compile
   com.jayway.jsonpath:json-path:jar:2.4.0:test
   com.mchange:mchange-commons-java:jar:0.2.11:compile
   com.mysema.codegen:codegen:jar:0.6.8:compile
   com.mysema.commons:mysema-commons-lang:jar:0.2.4:compile
   com.querydsl:querydsl-apt:jar:4.2.1:compile
   com.querydsl:querydsl-apt:jar:jpa:4.2.1:compile
   com.querydsl:querydsl-codegen:jar:4.2.1:compile
   com.querydsl:querydsl-core:jar:4.2.1:compile
   com.querydsl:querydsl-jpa:jar:4.2.1:compile
   com.vaadin.external.google:android-json:jar:0.0.20131108.vaadin1:test
   com.vividsolutions:jts-core:jar:1.14.0:compile
   com.zaxxer:HikariCP:jar:3.2.0:compile
   commons-cli:commons-cli:jar:1.3.1:provided
   commons-io:commons-io:jar:1.3.2:provided
   commons-lang:commons-lang:jar:2.6:provided
   commons-logging:commons-logging:jar:1.2:compile
   dk.brics.automaton:automaton:jar:1.11-8:test
   io.github.lukehutch:fast-classpath-scanner:jar:2.0.13:compile
   io.micrometer:micrometer-core:jar:1.1.1:compile
   io.netty:netty-buffer:jar:4.1.31.Final:compile
   io.netty:netty-codec-dns:jar:4.1.31.Final:compile
   io.netty:netty-codec-http2:jar:4.1.31.Final:compile
   io.netty:netty-codec-http:jar:4.1.31.Final:compile
   io.netty:netty-codec-socks:jar:4.1.31.Final:compile
   io.netty:netty-codec:jar:4.1.31.Final:compile
   io.netty:netty-common:jar:4.1.31.Final:compile
   io.netty:netty-handler-proxy:jar:4.1.31.Final:compile
   io.netty:netty-handler:jar:4.1.31.Final:compile
   io.netty:netty-resolver-dns:jar:4.1.31.Final:compile
   io.netty:netty-resolver:jar:4.1.31.Final:compile
   io.netty:netty-transport:jar:4.1.31.Final:compile
   io.reactivex.rxjava2:rxjava:jar:2.2.4:compile
   io.reactivex:rxgroovy:jar:1.0.3:compile
   io.reactivex:rxjava:jar:1.3.8:compile
   io.vertx:vertx-auth-common:jar:3.5.2:compile
   io.vertx:vertx-bridge-common:jar:3.5.2:compile
   io.vertx:vertx-core:jar:3.5.2:compile
   io.vertx:vertx-lang-groovy:jar:3.5.2:compile
   io.vertx:vertx-rx-groovy:jar:3.5.2:compile
   io.vertx:vertx-rx-java:jar:3.5.2:compile
   io.vertx:vertx-web:jar:3.5.2:compile
   javax.activation:javax.activation-api:jar:1.2.0:compile
   javax.annotation:javax.annotation-api:jar:1.3.2:compile
   javax.inject:javax.inject:jar:1:compile
   javax.persistence:javax.persistence-api:jar:2.2:compile
   javax.transaction:javax.transaction-api:jar:1.3:compile
   javax.validation:validation-api:jar:2.0.1.Final:compile
   javax.ws.rs:javax.ws.rs-api:jar:2.1:compile
   javax.xml.bind:jaxb-api:jar:2.3.1:compile
   joda-time:joda-time:jar:2.10.1:compile
   junit:junit:jar:4.12:test
   net.bytebuddy:byte-buddy-agent:jar:1.9.5:test
   net.bytebuddy:byte-buddy:jar:1.9.5:compile
   net.minidev:accessors-smart:jar:1.2:test
   net.minidev:json-smart:jar:2.3:test
   net.ttddyy:datasource-proxy:jar:1.4.2:compile
   org.apache.commons:commons-collections4:jar:4.1:compile
   org.apache.commons:commons-lang3:jar:3.8.1:test
   org.apache.commons:commons-math3:jar:3.5:provided
   org.apache.logging.log4j:log4j-api:jar:2.11.1:compile
   org.apache.logging.log4j:log4j-to-slf4j:jar:2.11.1:compile
   org.apache.tomcat.embed:tomcat-embed-core:jar:9.0.13:compile
   org.apache.tomcat.embed:tomcat-embed-el:jar:9.0.13:compile
   org.apache.tomcat.embed:tomcat-embed-websocket:jar:9.0.13:compile
   org.aspectj:aspectjweaver:jar:1.9.2:compile
   org.assertj:assertj-core:jar:3.11.1:test
   org.attoparser:attoparser:jar:2.0.5.RELEASE:compile
   org.codehaus.groovy:groovy-all:jar:2.4.15:compile
   org.codehaus.groovy:groovy-json:jar:2.5.4:compile
   org.codehaus.groovy:groovy:jar:2.5.4:compile
   org.dom4j:dom4j:jar:2.1.1:compile
   org.eclipse.jdt.core.compiler:ecj:jar:4.3.1:compile
   org.geolatte:geolatte-geom:jar:1.3.0:compile
   org.glassfish.hk2.external:aopalliance-repackaged:jar:2.5.0-b42:compile
   org.glassfish.hk2.external:asm-all-repackaged:jar:2.5.0-b42:compile
   org.glassfish.hk2:class-model:jar:2.5.0-b42:compile
   org.glassfish.hk2:config-types:jar:2.5.0-b42:compile
   org.glassfish.hk2:hk2-api:jar:2.5.0-b42:compile
   org.glassfish.hk2:hk2-config:jar:2.5.0-b42:compile
   org.glassfish.hk2:hk2-core:jar:2.5.0-b42:compile
   org.glassfish.hk2:hk2-locator:jar:2.5.0-b42:compile
   org.glassfish.hk2:hk2-runlevel:jar:2.5.0-b42:compile
   org.glassfish.hk2:hk2-utils:jar:2.5.0-b42:compile
   org.glassfish.hk2:hk2:jar:2.5.0-b42:compile
   org.glassfish.hk2:osgi-resource-locator:jar:1.0.1:compile
   org.glassfish.hk2:spring-bridge:jar:2.5.0-b42:compile
   org.glassfish.jersey.containers:jersey-container-servlet-core:jar:2.27:compile
   org.glassfish.jersey.containers:jersey-container-servlet:jar:2.27:compile
   org.glassfish.jersey.core:jersey-client:jar:2.27:compile
   org.glassfish.jersey.core:jersey-common:jar:2.27:compile
   org.glassfish.jersey.core:jersey-server:jar:2.27:compile
   org.glassfish.jersey.ext:jersey-bean-validation:jar:2.27:compile
   org.glassfish.jersey.ext:jersey-entity-filtering:jar:2.27:compile
   org.glassfish.jersey.ext:jersey-spring4:jar:2.27:compile
   org.glassfish.jersey.inject:jersey-hk2:jar:2.27:compile
   org.glassfish.jersey.media:jersey-media-jaxb:jar:2.27:compile
   org.glassfish.jersey.media:jersey-media-json-jackson:jar:2.27:compile
   org.hamcrest:hamcrest-core:jar:1.3:compile
   org.hamcrest:hamcrest-library:jar:1.3:test
   org.hdrhistogram:HdrHistogram:jar:2.1.9:compile
   org.hibernate.common:hibernate-commons-annotations:jar:5.0.4.Final:compile
   org.hibernate.validator:hibernate-validator:jar:6.0.13.Final:compile
   org.hibernate:hibernate-core:jar:5.3.7.Final:compile
   org.hibernate:hibernate-java8:jar:5.3.7.Final:compile
   org.hibernate:hibernate-spatial:jar:5.3.7.Final:compile
   org.hsqldb:hsqldb:jar:2.4.1:compile
   org.immutables:builder:jar:2.7.2:provided
   org.immutables:serial:jar:2.7.2:compile
   org.immutables:value:jar:2.7.2:provided
   org.javassist:javassist:jar:3.21.0-GA:compile
   org.javers:javers-core:jar:3.5.0:compile
   org.jboss.logging:jboss-logging:jar:3.3.2.Final:compile
   org.jboss:jandex:jar:2.0.5.Final:compile
   org.jdeferred:jdeferred-core:jar:1.2.6:compile
   org.jmockit:jmockit:jar:1.34:test
   org.latencyutils:LatencyUtils:jar:2.0.3:compile
   org.liquibase:liquibase-core:jar:3.6.2:compile
   org.mariadb.jdbc:mariadb-java-client:jar:2.3.0:compile
   org.mockito:mockito-core:jar:2.23.4:test
   org.objenesis:objenesis:jar:2.6:test
   org.ow2.asm:asm:jar:5.0.4:compile
   org.picocontainer:picocontainer:jar:2.15:compile
   org.projectlombok:lombok:jar:1.18.4:compile
   org.quartz-scheduler:quartz:jar:2.3.0:compile
   org.reactivestreams:reactive-streams:jar:1.0.2:compile
   org.reflections:reflections:jar:0.9.11:compile
   org.skyscreamer:jsonassert:jar:1.5.0:test
   org.slf4j:jul-to-slf4j:jar:1.7.25:compile
   org.slf4j:slf4j-api:jar:1.7.25:compile
   org.springframework.boot:spring-boot-actuator-autoconfigure:jar:2.1.1.RELEASE:compile
   org.springframework.boot:spring-boot-actuator:jar:2.1.1.RELEASE:compile
   org.springframework.boot:spring-boot-autoconfigure:jar:2.1.1.RELEASE:compile
   org.springframework.boot:spring-boot-devtools:jar:2.1.1.RELEASE:compile
   org.springframework.boot:spring-boot-starter-actuator:jar:2.1.1.RELEASE:compile
   org.springframework.boot:spring-boot-starter-aop:jar:2.1.1.RELEASE:compile
   org.springframework.boot:spring-boot-starter-data-jpa:jar:2.1.1.RELEASE:compile
   org.springframework.boot:spring-boot-starter-hateoas:jar:2.1.1.RELEASE:compile
   org.springframework.boot:spring-boot-starter-jdbc:jar:2.1.1.RELEASE:compile
   org.springframework.boot:spring-boot-starter-jersey:jar:2.1.1.RELEASE:compile
   org.springframework.boot:spring-boot-starter-json:jar:2.1.1.RELEASE:compile
   org.springframework.boot:spring-boot-starter-logging:jar:2.1.1.RELEASE:compile
   org.springframework.boot:spring-boot-starter-quartz:jar:2.1.1.RELEASE:compile
   org.springframework.boot:spring-boot-starter-security:jar:2.1.1.RELEASE:compile
   org.springframework.boot:spring-boot-starter-test:jar:2.1.1.RELEASE:test
   org.springframework.boot:spring-boot-starter-thymeleaf:jar:2.1.1.RELEASE:compile
   org.springframework.boot:spring-boot-starter-tomcat:jar:2.1.1.RELEASE:compile
   org.springframework.boot:spring-boot-starter-validation:jar:2.1.1.RELEASE:compile
   org.springframework.boot:spring-boot-starter-web:jar:2.1.1.RELEASE:compile
   org.springframework.boot:spring-boot-starter:jar:2.1.1.RELEASE:compile
   org.springframework.boot:spring-boot-test-autoconfigure:jar:2.1.1.RELEASE:test
   org.springframework.boot:spring-boot-test:jar:2.1.1.RELEASE:test
   org.springframework.boot:spring-boot:jar:2.1.1.RELEASE:compile
   org.springframework.data:spring-data-commons:jar:2.1.3.RELEASE:compile
   org.springframework.data:spring-data-jpa:jar:2.1.3.RELEASE:compile
   org.springframework.hateoas:spring-hateoas:jar:0.25.0.RELEASE:compile
   org.springframework.plugin:spring-plugin-core:jar:1.2.0.RELEASE:compile
   org.springframework.retry:spring-retry:jar:1.2.2.RELEASE:compile
   org.springframework.security:spring-security-config:jar:5.1.2.RELEASE:compile
   org.springframework.security:spring-security-core:jar:5.1.2.RELEASE:compile
   org.springframework.security:spring-security-test:jar:5.1.2.RELEASE:test
   org.springframework.security:spring-security-web:jar:5.1.2.RELEASE:compile
   org.springframework.session:spring-session:jar:1.3.3.RELEASE:compile
   org.springframework:spring-aop:jar:5.1.3.RELEASE:compile
   org.springframework:spring-aspects:jar:5.1.3.RELEASE:compile
   org.springframework:spring-beans:jar:5.1.3.RELEASE:compile
   org.springframework:spring-context-support:jar:5.1.3.RELEASE:compile
   org.springframework:spring-context:jar:5.1.3.RELEASE:compile
   org.springframework:spring-core:jar:5.1.3.RELEASE:compile
   org.springframework:spring-expression:jar:5.1.3.RELEASE:compile
   org.springframework:spring-jcl:jar:5.1.3.RELEASE:compile
   org.springframework:spring-jdbc:jar:5.1.3.RELEASE:compile
   org.springframework:spring-orm:jar:5.1.3.RELEASE:compile
   org.springframework:spring-test:jar:5.1.3.RELEASE:test
   org.springframework:spring-tx:jar:5.1.3.RELEASE:compile
   org.springframework:spring-web:jar:5.1.3.RELEASE:compile
   org.springframework:spring-webmvc:jar:5.1.3.RELEASE:compile
   org.thymeleaf.extras:thymeleaf-extras-java8time:jar:3.0.2.RELEASE:compile
   org.thymeleaf:thymeleaf-spring5:jar:3.0.11.RELEASE:compile
   org.thymeleaf:thymeleaf:jar:3.0.11.RELEASE:compile
   org.unbescape:unbescape:jar:1.1.6.RELEASE:compile
   org.xmlunit:xmlunit-core:jar:2.6.2:test
   org.yaml:snakeyaml:jar:1.23:compile

