uuid|dtype|first_name|last_name|surname|email|registered
f10e7f25-d418-421f-abc3-6a379141fcd2|CANDIDATE|3|4|5|candidate@sojka.co|T
58605732-fb27-4612-a965-7dc89c56d115|CANDIDATE|3|4|5|demo@sojka.co|T
413205e6-06ba-4aa1-b10d-a87c8ba5c1e5|HIRER|3|4|5|hr@sojka.co|T
3d28a5b9-1040-42ee-9507-620c3956d87a|TEACHER|3|4|5|teacher@sojka.co|T
1c9a977b-4ced-41e5-b5c5-a395e80a3b85|CANDIDATE|Jane|Doyle|5|jane@jware.co|T