UUID|VERSION|PASSWD|USERNAME|ENABLED|LAST_PASSWD_RESET_DATE
a3cee538-3322-44c6-87a8-5057290b97f2|0|sojka|candidate@sojka.co||
49d0cd23-a03b-46f4-a2f2-319bf823fb69|0|sojka|hr@sojka.co||
a3a3203c-664b-4750-b3f8-5b2ae2351424|0|sojka|teacher@sojka.co||
a7a6ccd9-656b-4ce5-8c12-3fbab6bf2eae|0|sojka|demo@sojka.co||
